# Created by Octave 5.1.0, Thu Dec 12 12:02:57 2019 GMT <unknown@JASP38N>
# name: visumtitanium_list
# type: global cell
# rows: 10
# columns: 1
# name: <cell-element>
# type: string
# elements: 1
# length: 10
titanium_1


# name: <cell-element>
# type: string
# elements: 1
# length: 10
titanium_2


# name: <cell-element>
# type: string
# elements: 1
# length: 10
titanium_3


# name: <cell-element>
# type: string
# elements: 1
# length: 10
titanium_4


# name: <cell-element>
# type: string
# elements: 1
# length: 10
titanium_5


# name: <cell-element>
# type: string
# elements: 1
# length: 10
titanium_6


# name: <cell-element>
# type: string
# elements: 1
# length: 10
titanium_A


# name: <cell-element>
# type: string
# elements: 1
# length: 10
titanium_B


# name: <cell-element>
# type: string
# elements: 1
# length: 10
titanium_C


# name: <cell-element>
# type: string
# elements: 1
# length: 15
titanium_calibA





# name: vtit_idx
# type: scalar
0


# name: vtit_max
# type: scalar
10


# name: opticalsensor_list
# type: global cell
# rows: 3
# columns: 1
# name: <cell-element>
# type: string
# elements: 1
# length: 3
sem


# name: <cell-element>
# type: string
# elements: 1
# length: 4
furo


# name: <cell-element>
# type: string
# elements: 1
# length: 8
furo+sem





# name: sens_idx
# type: scalar
0


# name: sens_max
# type: scalar
3


# name: disc_list
# type: global cell
# rows: 33
# columns: 1
# name: <cell-element>
# type: string
# elements: 1
# length: 20
milholaranjaclaroobl


# name: <cell-element>
# type: string
# elements: 1
# length: 16
milhovermelhoobl


# name: <cell-element>
# type: string
# elements: 1
# length: 13
milhoverdeobl


# name: <cell-element>
# type: string
# elements: 1
# length: 14
milhosalmaoobl


# name: <cell-element>
# type: string
# elements: 1
# length: 13
milhocinzaobl


# name: <cell-element>
# type: string
# elements: 1
# length: 14
milhobrancoobl


# name: <cell-element>
# type: string
# elements: 1
# length: 15
milhoaboboraobl


# name: <cell-element>
# type: string
# elements: 1
# length: 17
milholaranjaclaro


# name: <cell-element>
# type: string
# elements: 1
# length: 13
milhovermelho


# name: <cell-element>
# type: string
# elements: 1
# length: 9
milhobege


# name: <cell-element>
# type: string
# elements: 1
# length: 10
milholilas


# name: <cell-element>
# type: string
# elements: 1
# length: 14
milhoazulclaro


# name: <cell-element>
# type: string
# elements: 1
# length: 12
milholaranja


# name: <cell-element>
# type: string
# elements: 1
# length: 15
milhoverdeclaro


# name: <cell-element>
# type: string
# elements: 1
# length: 9
milhoazul


# name: <cell-element>
# type: string
# elements: 1
# length: 9
milhorosa


# name: <cell-element>
# type: string
# elements: 1
# length: 12
milhoamarelo


# name: <cell-element>
# type: string
# elements: 1
# length: 12
milhobege9.5


# name: <cell-element>
# type: string
# elements: 1
# length: 15
milhoverdelimao


# name: <cell-element>
# type: string
# elements: 1
# length: 9
milhoroxo


# name: <cell-element>
# type: string
# elements: 1
# length: 11
sojaamarelo


# name: <cell-element>
# type: string
# elements: 1
# length: 11
sojalaranja


# name: <cell-element>
# type: string
# elements: 1
# length: 9
sojalilas


# name: <cell-element>
# type: string
# elements: 1
# length: 13
soja64laranja


# name: <cell-element>
# type: string
# elements: 1
# length: 11
soja64lilas


# name: <cell-element>
# type: string
# elements: 1
# length: 11
algodaoazul


# name: <cell-element>
# type: string
# elements: 1
# length: 12
algodaoverde


# name: <cell-element>
# type: string
# elements: 1
# length: 10
feijaobege


# name: <cell-element>
# type: string
# elements: 1
# length: 17
feijaomarromclaro


# name: <cell-element>
# type: string
# elements: 1
# length: 18
feijaomarromescuro


# name: <cell-element>
# type: string
# elements: 1
# length: 17
sorgomarromescuro


# name: <cell-element>
# type: string
# elements: 1
# length: 15
sorgoazulescuro


# name: <cell-element>
# type: string
# elements: 1
# length: 10
sorgocinza





# name: disc_idx
# type: scalar
0


# name: disc_max
# type: scalar
33


# name: ring_list
# type: global cell
# rows: 12
# columns: 1
# name: <cell-element>
# type: string
# elements: 1
# length: 12
milhoamarelo


# name: <cell-element>
# type: string
# elements: 1
# length: 10
milhoverde


# name: <cell-element>
# type: string
# elements: 1
# length: 10
milhocinza


# name: <cell-element>
# type: string
# elements: 1
# length: 15
milhoazulescuro


# name: <cell-element>
# type: string
# elements: 1
# length: 9
sojalilas


# name: <cell-element>
# type: string
# elements: 1
# length: 8
sojaroxo


# name: <cell-element>
# type: string
# elements: 1
# length: 11
sojaamarelo


# name: <cell-element>
# type: string
# elements: 1
# length: 11
sojalaranja


# name: <cell-element>
# type: string
# elements: 1
# length: 16
sojalaranjaclaro


# name: <cell-element>
# type: string
# elements: 1
# length: 11
algodaoazul


# name: <cell-element>
# type: string
# elements: 1
# length: 12
algodaoverde


# name: <cell-element>
# type: string
# elements: 1
# length: 10
sorgopreto





# name: ring_idx
# type: scalar
0


# name: ring_max
# type: scalar
12


# name: seedpresence_list
# type: global cell
# rows: 3
# columns: 1
# name: <cell-element>
# type: string
# elements: 1
# length: 5
empty


# name: <cell-element>
# type: string
# elements: 1
# length: 7
partial


# name: <cell-element>
# type: string
# elements: 1
# length: 4
full





# name: seed_idx
# type: scalar
0


# name: seed_max
# type: scalar
3


# name: neatness_list
# type: global cell
# rows: 2
# columns: 1
# name: <cell-element>
# type: string
# elements: 1
# length: 5
clean


# name: <cell-element>
# type: string
# elements: 1
# length: 5
dirty





# name: neat_idx
# type: scalar
0


# name: neat_max
# type: scalar
2


# name: lenstransparency_list
# type: global cell
# rows: 3
# columns: 1
# name: <cell-element>
# type: string
# elements: 1
# length: 5
clean


# name: <cell-element>
# type: string
# elements: 1
# length: 9
insulfilm


# name: <cell-element>
# type: string
# elements: 1
# length: 8
graphite





# name: lens_idx
# type: scalar
0


# name: lens_max
# type: scalar
3


