Seed Emitter PN;SFH4350
Seed Emitter Current;31.8
Seed Phototransistor PN;BPW85C
Seed White Current;455
Seed Resistor;374000
Hole Emitter PN;SFH4350
Hole Emitter Current;31.8
Hole Phototransistor PN;BPW85C
Hole White Current;650
Hole Resistor;374000
