# Created by Octave 4.0.0, Wed Nov 27 09:17:26 2019 Hora oficial do Brasil <unknown@JASP38N>;
# name: output_string;
# type: sq_string;
# elements: 1;
# length: 417;
Date;2019-11-05-1
Wave Window Time;[0.1642       0.313      0.4624      0.6086      0.7608      0.8994      1.0566      1.2002      1.3596      1.4946      1.6528      1.7964      1.9486]
Seed Vector;[0  0  0  0  0  0  0  0  0  0  0  0]
Power Supply Voltage;3
Seed PhotoTransistor Resistor;0
Hole PhotoTransistor Resistor;0
Disc;soja64laranja
Ring;sojalaranja
Seed Presence;empty
Neatness;clean
Lens Transparency;clean
